{
  "project" : {
    "id" : "vas_346-81763394-XUk",
    "name" : "vas_346-81763394-XUk",
    "folder" : "/"
  },
  "settings" : {
    "language" : "ru",
    "spellingCorrection" : false,
    "classificationAlgorithm" : "sts",
    "timezone" : "UTC",
    "shared" : false
  },
  "intents" : [ {
    "id" : 60594,
    "path" : "/AccountReplenishment",
    "answer" : "Я так понял, ты хочешь пополнить свой инвестиционный счет. Я бы мог тебе помочь, если бы умел. Скоро меня этому научат.",
    "enabled" : true,
    "shared" : false,
    "phrases" : [ ],
    "patterns" : [ "* [@tell/@want] (пополн*/((положить/*кин*) @money)) [на/в/к] [мо*/сво*] * (ИИС/([инвест*/брокерск*] счет/инвест)) [[в] ВТБ] *" ]
  }, {
    "id" : 60639,
    "path" : "/BrokerageTaxes",
    "answer" : "Да, действительно присутствует налог на продажу акций. Скоро я буду способен рассказать тебе об этом.",
    "enabled" : true,
    "shared" : false,
    "phrases" : [ ],
    "patterns" : [ "* [@tell] {налог*  [за/на/по/к/в] [(сделк*/операц*/продаж*/покупк*/обмен*/торг*) [@security]]  * [ИИС/([инвест*/брокерск*]счет*)/инвест*/бирж*]} *" ]
  }, {
    "id" : 60456,
    "path" : "/BuySecurity",
    "answer" : "Ты хочешь приобрести ценныые бумаги? Отлично! Но я пока не могу тебе с этим помочь.",
    "enabled" : true,
    "shared" : false,
    "phrases" : [ ],
    "patterns" : [ "* [tell] {(приобре*/*куп*) * (@security)} * " ]
  }, {
    "id" : 60616,
    "path" : "/Comissions",
    "answer" : "Ты хочешь знать про коммиссии, связанные с инвестициями?  Меня пока, к сожалению, этому не научили.",
    "enabled" : true,
    "shared" : false,
    "phrases" : [ ],
    "patterns" : [ "* [@tell] {комисс* * [ИИС/([инвест*/брокерск*]счет*)/инвест*/бирж*] } *" ]
  }, {
    "id" : 60635,
    "path" : "/Comissions/ComissionsForDeals",
    "answer" : "Я так понял, ты хочешь узнать про комиссию за сделки на бирже. Я бы мог тебе помочь, если бы умел. Скоро я этому научусь.",
    "enabled" : true,
    "shared" : false,
    "phrases" : [ ],
    "patterns" : [ "* [@tell] {[@which/@howmuch] комисс* [за/по/на/к] (сделк*/покупк*/продаж*/обмен*/торг*) [@security]* [ИИС/([инвест*/брокерск*]счет*)/инвест*]/бирж*} *" ]
  }, {
    "id" : 60637,
    "path" : "/Comissions/ComissionsForWithdrawal",
    "answer" : "Я пока не могу ничего рассказать про комиссию за вывод денег с инвестсчёта, но разработчики уже работают над этим.",
    "enabled" : true,
    "shared" : false,
    "phrases" : [ ],
    "patterns" : [ "* [@tell] {[@which/@howmuch] комисс* * [за/по/на/к] (вывод*/выве*) @money [с/из] [ИИС/([инвест*/брокерск*]счет*)/инвест*/бирж*]} *" ]
  }, {
    "id" : 60595,
    "path" : "/GetTariff",
    "answer" : "Ты хочешь узнать свой тариф ИИС? К сожалению, я пока не могу тебе с этим помочь.",
    "enabled" : true,
    "shared" : false,
    "phrases" : [ ],
    "patterns" : [ "* [@tell] {[@which] [у меня/мо*/сво*] тариф* * [ИИС/([инвест*/брокерск*]счет*)/инвест*/бирж*]} *" ]
  }, {
    "id" : 60642,
    "path" : "/MarginLending",
    "answer" : "Маржинальное кредитование — это когда ты берешь у банка в долг деньги или ценные бумаги под процент. Например, эта услуга позволяет купить акции, если у тебя не хватает денег и пополнить счет позже. Еще подробнее рассказать не могу, но скоро меня и этому научат.",
    "enabled" : true,
    "shared" : false,
    "phrases" : [ ],
    "patterns" : [ "* [@tell] маржинальн* (торговл*/кредит*) *" ]
  }, {
    "id" : 60457,
    "path" : "/OpenInvestmentAccount",
    "answer" : "Открыть инвестиционный счет в ВТБ очень просто. Перейди на сайт, чтобы получить всю информацию. Я пока недостаточно компетентен в этом вопросе.",
    "enabled" : true,
    "shared" : false,
    "phrases" : [ ],
    "patterns" : [ "* [@tell/@want] (откр*/запус*/созд*) * (ИИС/([инвест*/брокерск*]счет*)/инвест*) [[в] ВТБ] *" ]
  }, {
    "id" : 60644,
    "path" : "/RobotAdviser",
    "answer" : "Робот-советник — бесплатный сервис, который подберет персональный портфель ценных бумаг и будет присылать советы о том, как им управлять. Стратегии создают лучшие управляющие ВТБ, а робот оптимизирует их специально под твои задачи.",
    "enabled" : true,
    "shared" : false,
    "phrases" : [ ],
    "patterns" : [ "* [@want] (помо*/совет*) [с/на/в/для/по/касательно] *  (ИИС/([инвест*/брокерск*]счет*)/инвест*/бирж*) *", "* [@tell] робот* (советн*/помощ*) *" ]
  }, {
    "id" : 60615,
    "path" : "/TaxesPaidByBroker",
    "answer" : "Я так понял, ты хочешь узнать, в каких случаях брокер платит за тебя налоги. Разработчики пока не научили меня этому, извини.",
    "enabled" : true,
    "shared" : false,
    "phrases" : [ ],
    "patterns" : [ "* [@tell] [когда] {брокер* (*плат*/оплач*) [сам*] [(за/вместо) (меня/клиент*/нас*)] * налог* } *" ]
  }, {
    "id" : 60638,
    "path" : "/WhereToInvest",
    "answer" : "Всегда стоит выяснить, куда инвестировать, прежде чем инвестировать, но я пока не могу тебе подсказать, к сожалению.",
    "enabled" : true,
    "shared" : false,
    "phrases" : [ ],
    "patterns" : [ "* [@tell] [куда/(во что)/кому] [лучше[всего]] * инвест* *" ]
  }, {
    "id" : 60455,
    "path" : "/WithdrawFromAccount",
    "answer" : "У вывода денег с инвестиционного счета есть свои особенности. Обратись к специалисту или перейди на сайт, чтобы узнать эту информацию, а я попрошу разработчиков научить меня этому.",
    "enabled" : true,
    "shared" : false,
    "phrases" : [ ],
    "patterns" : [ "* [@tell] {(вывод*/выве*/снять/сним*) @money * [с/со/из/на] (ИИС/([инвест*/брокерск*]счет*)/инвест*/бирж*)} *" ]
  }, {
    "id" : 60454,
    "path" : "/WrittenOffComissions",
    "answer" : "Я пока не умею узнавать, какую комиссию с тебя сняли , но разработчики уже работают над этим.",
    "enabled" : true,
    "shared" : false,
    "phrases" : [ ],
    "patterns" : [ "* [@tell] {[@which/@howmuch] комисс* * ([был*] (спис*/сня*/ взя*/*платил*))} *" ]
  } ],
  "entities" : [ {
    "entity" : {
      "id" : 29342,
      "name" : "get",
      "enabled" : true,
      "shared" : false,
      "type" : "annotation",
      "priority" : 1,
      "noSpelling" : true,
      "noMorph" : false,
      "phoneticSearch" : false,
      "fuzzySearch" : false,
      "client" : false
    },
    "records" : [ {
      "id" : 1960999,
      "type" : "pattern",
      "rule" : [ "( @want получить/дай* )" ],
      "value" : ""
    } ]
  }, {
    "entity" : {
      "id" : 29344,
      "name" : "howmuch",
      "enabled" : true,
      "shared" : false,
      "type" : "annotation",
      "priority" : 1,
      "noSpelling" : true,
      "noMorph" : false,
      "phoneticSearch" : false,
      "fuzzySearch" : false,
      "client" : false
    },
    "records" : [ {
      "id" : 1961001,
      "type" : "pattern",
      "rule" : [ "(сколько/насколько (больш*/крупн*/много)/(больш*/крупн*/много) ли)" ],
      "value" : ""
    } ]
  }, {
    "entity" : {
      "id" : 29343,
      "name" : "money",
      "enabled" : true,
      "shared" : false,
      "type" : "annotation",
      "priority" : 1,
      "noSpelling" : true,
      "noMorph" : false,
      "phoneticSearch" : false,
      "fuzzySearch" : false,
      "client" : false
    },
    "records" : [ {
      "id" : 1961000,
      "type" : "pattern",
      "rule" : [ "(деньг*/(денеж* (средств*/ср* в*))/валют*/рубл*/дене*)" ],
      "value" : ""
    } ]
  }, {
    "entity" : {
      "id" : 29401,
      "name" : "security",
      "enabled" : true,
      "shared" : false,
      "type" : "annotation",
      "priority" : 1,
      "noSpelling" : true,
      "noMorph" : false,
      "phoneticSearch" : false,
      "fuzzySearch" : false,
      "client" : false
    },
    "records" : [ {
      "id" : 1961265,
      "type" : "pattern",
      "rule" : [ "((ценн* бумаг*)/([инвестиц*] облигац*)/акци*/вексел*/ опцион*/варрант*/фьючерс*/актив*)" ],
      "value" : ""
    } ]
  }, {
    "entity" : {
      "id" : 29339,
      "name" : "tell",
      "enabled" : true,
      "shared" : false,
      "type" : "annotation",
      "priority" : 1,
      "noSpelling" : true,
      "noMorph" : false,
      "phoneticSearch" : false,
      "fuzzySearch" : false,
      "client" : false
    },
    "records" : [ {
      "id" : 1960996,
      "type" : "pattern",
      "rule" : [ "(*скаж*/сказ*/повед*/объясн*/разъясн*/сориентир*/*консультир*/*совет*/(@want узнать)/(*то так*)/(@get информаци*)/((где/как) (увид*/*смотр*/узна*/выясн*))) [мне/нам] [пожалуйста] [про/о/по/как*/об/где] " ],
      "value" : ""
    } ]
  }, {
    "entity" : {
      "id" : 29341,
      "name" : "want",
      "enabled" : true,
      "shared" : false,
      "type" : "annotation",
      "priority" : 1,
      "noSpelling" : true,
      "noMorph" : false,
      "phoneticSearch" : false,
      "fuzzySearch" : false,
      "client" : false
    },
    "records" : [ {
      "id" : 1960998,
      "type" : "pattern",
      "rule" : [ "(хоч*/можно [я]/{было бы неплохо}/давай*/{(могу [ли])[я]}/нужно/надо/необходим*)" ],
      "value" : ""
    } ]
  }, {
    "entity" : {
      "id" : 29340,
      "name" : "which",
      "enabled" : true,
      "shared" : false,
      "type" : "annotation",
      "priority" : 1,
      "noSpelling" : true,
      "noMorph" : false,
      "phoneticSearch" : false,
      "fuzzySearch" : false,
      "client" : false
    },
    "records" : [ {
      "id" : 1960997,
      "type" : "pattern",
      "rule" : [ "( ([с/в/при/вместе с] (~какой/каков*) [нибудь/то/либо])/есть [ли])" ],
      "value" : ""
    } ]
  } ],
  "enabledSystemEntities" : [ "duckling.number", "duckling.time", "duckling.duration", "duckling.phone-number", "duckling.email", "duckling.url" ],
  "spellerDictionary" : [ ],
  "systemEntities" : [ {
    "name" : "mystem.geo",
    "enabled" : false
  }, {
    "name" : "mystem.persn",
    "enabled" : false
  }, {
    "name" : "mystem.obsc",
    "enabled" : false
  }, {
    "name" : "mystem.patrn",
    "enabled" : false
  }, {
    "name" : "mystem.famn",
    "enabled" : false
  }, {
    "name" : "pymorphy.romn",
    "enabled" : false
  }, {
    "name" : "pymorphy.latn",
    "enabled" : false
  }, {
    "name" : "pymorphy.numb",
    "enabled" : false
  }, {
    "name" : "pymorphy.intg",
    "enabled" : false
  }, {
    "name" : "pymorphy.abbr",
    "enabled" : false
  }, {
    "name" : "pymorphy.name",
    "enabled" : false
  }, {
    "name" : "pymorphy.surn",
    "enabled" : false
  }, {
    "name" : "pymorphy.patr",
    "enabled" : false
  }, {
    "name" : "pymorphy.geox",
    "enabled" : false
  }, {
    "name" : "pymorphy.orgn",
    "enabled" : false
  }, {
    "name" : "duckling.number",
    "version" : "v2",
    "enabled" : true
  }, {
    "name" : "duckling.ordinal",
    "version" : "v2",
    "enabled" : false
  }, {
    "name" : "duckling.amount-of-money",
    "version" : "v2",
    "enabled" : false
  }, {
    "name" : "duckling.distance",
    "version" : "v2",
    "enabled" : false
  }, {
    "name" : "duckling.time",
    "version" : "v2",
    "enabled" : true
  }, {
    "name" : "duckling.date",
    "version" : "v2",
    "enabled" : false
  }, {
    "name" : "duckling.time-of-day",
    "version" : "v2",
    "enabled" : false
  }, {
    "name" : "duckling.duration",
    "version" : "v2",
    "enabled" : true
  }, {
    "name" : "duckling.phone-number",
    "version" : "v2",
    "enabled" : true
  }, {
    "name" : "duckling.email",
    "version" : "v2",
    "enabled" : true
  }, {
    "name" : "duckling.url",
    "version" : "v2",
    "enabled" : true
  }, {
    "name" : "duckling.interval",
    "version" : "v2",
    "enabled" : false
  }, {
    "name" : "mlps-obscene.obscene",
    "enabled" : false
  }, {
    "name" : "zb.datetime",
    "enabled" : false
  }, {
    "name" : "zb.number",
    "enabled" : false
  } ]
}